…
```r
# group_by() country, calculate average life expectancy
gapminder %>%
group_by(country) %>%
summarise(LifeExp_ang = max(lifeExp),
          LifeExp_ang = min(lifeExp),
          LifeExp_ang = mean(lifeExp))
```

```
# A tibble: 142 × 2
   country     LifeExp_ang
   <fct>             <dbl>
 1 Afghanistan        37.5
 2 Albania            68.4
 3 Algeria            59.0
 4 Angola             37.9
 5 Argentina          69.1
 6 Australia          74.7
 7 Austria            73.1
 8 Bahrain            65.6
 9 Bangladesh         49.8
10 Belgium            73.6
# … with 132 more rows
```
…
**Challenge 4** :


```r
gapminder %>%
    filter(continent == "Asia", year >= 1990) %>%
    mutate(totalGDP = gdpPercap * pop) %>%
    group_by(country) %>%
    summarise(totalGDP_mean = mean(totalGDP), 
              totalGDP_sd = sd(totalGDP))
```

```
# A tibble: 33 × 3
   country          totalGDP_mean totalGDP_sd
   <fct>                    <dbl>       <dbl>
 1 Afghanistan            1.85e10     8.94e 9
 2 Bahrain                1.47e10     4.81e 9
 3 Bangladesh             1.45e11     4.94e10
 4 Cambodia               1.28e10     7.82e 9
 5 China                  3.82e12     2.00e12
 6 Hong Kong, China       2.03e11     5.57e10
 7 India                  1.74e12     7.33e11
 8 Indonesia              6.15e11     1.43e11
 9 Iran                   5.96e11     1.58e11
10 Iraq                   8.98e10     2.91e10
# … with 23 more rows
```
